[
  {
    "story": "Слушайте мою страшную историю. Однажды, поздно ночью, несколько друзей возвращались домой из бара. Один друг отдалился от компании и сел в транспорт, а другой не понял это и побежал его догонять. На пути у него возникла фигура в черном балахоне и с косой, но он ее не заметил. Тогда эта фигура выставила косу и друг, бежавший за транспортом упал и разбил колено, а также порвал штаны. За 40 гривень. Вот такая история."
  },
  {
    "story": "А вот такая еще есть. Как-то раз всадники апокалипсиса разделились и два из них устроились работать на СТО. Решили они без маек походить и доебаться до компании друзей. Но те оказались программистами и обоссали их. Всадники приуныли, расстроились и прокляли страну, в которой жила эта компания друзей. С тех пор там теперь правит усатый сатана."
  },
  {
    "story": "Случилось это поздно ночью. Один раз очень усатый, но очень красивый молодой человек решил пообщаться с трапами в одной популярной социальной сети. Он притворялся, что не догадывается, о том, что его мужикоподобные дамы на самом деле мальчики. И вот он разговорился с одной из них и понравился ей. Она в него влюбилась. Он выманил у нее обнаженное фото, но каково же было его удивление, когда на причинном месте он увидел не то, что ожидал, а голову Бафомета. Как только он ее увидел, он отключился, а на следущее утро сказал друзьям, что больше не будет им рассказывать о своих 'веселых' переписках с трапами."
  },
  {
    "story": "Один разработчик в Яндексе не хотел делать то, что от него требовал главный тестировщик. Хотя он был и меньше ростом и не такой сильный, но он не боялся своего длинного, бородатого товарища. И вот в один день, его высокий коллега заявил: 'Я прошлому разрабу вьебал в голову за то, что он меня не слушал. А он ударился головой об уголок стола откинул копыта. Дело замяли, но его призрак до сих пор ходит по офису.' Разработчик так и не понял, была это шутка или реальная история, но как-то раз, заработавшись поздно ночью, он начал скролить вебм тред на двачах, наткнулся на скример и умер от разрыва сердца. Хотя звук в его наушниках был на нуле..."
  },
  {
    "story": "Идет мужик по лесу. Вдруг увидел дупло. Сунул в него одну руку, достает - нет руки. Сунул другую, достает - и другой нет. Засовывает голову и кричит: 'Что это за halloween у вас такой, кобольдовцы?'"
  },
  {
    "story": "Возвращалась как-то компания друзей в поезде из Киева. Ехали они в плацкарте, полном каких-то сатанистов, возвращавшихся с СНГшного сатанинского форума домой в Питер. И вот, всю дорогу до Гомеля, какая-то женщина заставляла какого-то деда доесть за всеми еду. Ребята сдавливали смех, приговаривая 'Дед доест, лол'. Но потом им стало не до смеха, когда оказалось, что дед доедал каких-то детей хунты. Слава Новороссии!"
  },
  {
    "story": "Одна подростающая лингвистка-программистка из предместья крупного города оказалась в квартире молодого, перспективного гея. Так получилось, что он попросил ее посмотреть за его домашним питомцем две недели, пока он будет в командировке. Девушка исправно выполняла эту просьбу, но как-то ночью она проснулась и услышалась, что кто-то шкребется в туалетную дверь изнутри. Она хотела спать и поэтому заснула опять. На следующую ночь кто-то опять скребся в туалетную дверь изнутри, даже еще сильнее, но она подумала что это ей привиделось. Но на следующую ночь кто-то начал стучать в двери. Тогда она взяла кота в руки, чтобы если что бросить его в лицо тому зверю, который прятался за туалетной дверью. И вот она открыла дверь, а там.... Скис. Говорит: 'Ты что, ебанутая? У меня отпуск, мне квартиру нужно искать, нахуй ты меня тут закрыла?'"
  },
  {
    "story": "Работал как-то в яндексе один очень талантливый разработчик, который любил угли. Как-то раз он заработался до поздна и одна симпатичная уборщица ему сказала: 'Хватит работать уже, иди домой. Каждый день тут до поздна сидишь, когда это прекратиться?' А он ей ответил: 'Вот если похудею, начну на танцы ходить, социализироваться и тогда вообще на работу ходить не буду, буду с дома работать по 3-4 часа в день(а иногда вообще не работать) и получать 3к'. 'Добазарились, ответила уборщица'. И знаете что? Это ведь была сделка с дьяволом."
  }
]